paper,enrichment,presentation,aggregation,contentabstraction
Su2015,F, , ,
PayamBarnaghi118,C, , ,
Ploennigs2017,F,C,C,C
Sarkar2015, ,F, ,F
Gyrard2016,F, , ,F
Wang2018,C, ,C,C
Desai2015,F, , ,
Su2018, , , ,F
Kelaidonis2016,F, , ,
Pease2017,C,C,C,C
Le-Phuoc2016,C,C,C,
Kaed2018,F, , ,
Hasemann2012,F, , ,
Howell2017, ,C,C,C
DElia2017, , , ,C
Perera2016, ,C,C,C
Singh2017, , ,C,C
Ullah2017,C, ,C,C
Kharlamov2016, , ,C,
He2012, , , ,C
Dey2017,F, , ,
Aissaoui2016,C, , ,
Al-Osta2017,F, ,F,
Maarala2017, , , ,F
Nagib2016,C, , ,
Datta2015,F, , ,F
Compton2009,C, , ,
Costea2016,F, , ,F
Han2017,F, , ,
Khan2015,F, , ,C
Mathew2014,F,C, ,
Fensel2017,C,C,C,F
Pfisterer2011,C, , ,
Gyrard2017, ,C, ,F
Ara2014,C, , ,
Poslad2015,C, ,C,C
Kaed2016,F, , ,
Le-Phuoc2012,C,C, ,
Seydoux2018_itl, , , ,F
