%!PS-Adobe-3.0 EPSF-3.0
%%Creator: cairo 1.14.6 (http://cairographics.org)
%%CreationDate: Sat Sep  1 19:06:46 2018
%%Pages: 1
%%DocumentData: Clean7Bit
%%LanguageLevel: 2
%%BoundingBox: 0 0 16 16
%%EndComments
%%BeginProlog
save
50 dict begin
/q { gsave } bind def
/Q { grestore } bind def
/cm { 6 array astore concat } bind def
/w { setlinewidth } bind def
/J { setlinecap } bind def
/j { setlinejoin } bind def
/M { setmiterlimit } bind def
/d { setdash } bind def
/m { moveto } bind def
/l { lineto } bind def
/c { curveto } bind def
/h { closepath } bind def
/re { exch dup neg 3 1 roll 5 3 roll moveto 0 rlineto
      0 exch rlineto 0 rlineto closepath } bind def
/S { stroke } bind def
/f { fill } bind def
/f* { eofill } bind def
/n { newpath } bind def
/W { clip } bind def
/W* { eoclip } bind def
/BT { } bind def
/ET { } bind def
/pdfmark where { pop globaldict /?pdfmark /exec load put }
    { globaldict begin /?pdfmark /pop load def /pdfmark
    /cleartomark load def end } ifelse
/BDC { mark 3 1 roll /BDC pdfmark } bind def
/EMC { mark /EMC pdfmark } bind def
/cairo_store_point { /cairo_point_y exch def /cairo_point_x exch def } def
/Tj { show currentpoint cairo_store_point } bind def
/TJ {
  {
    dup
    type /stringtype eq
    { show } { -0.001 mul 0 cairo_font_matrix dtransform rmoveto } ifelse
  } forall
  currentpoint cairo_store_point
} bind def
/cairo_selectfont { cairo_font_matrix aload pop pop pop 0 0 6 array astore
    cairo_font exch selectfont cairo_point_x cairo_point_y moveto } bind def
/Tf { pop /cairo_font exch def /cairo_font_matrix where
      { pop cairo_selectfont } if } bind def
/Td { matrix translate cairo_font_matrix matrix concatmatrix dup
      /cairo_font_matrix exch def dup 4 get exch 5 get cairo_store_point
      /cairo_font where { pop cairo_selectfont } if } bind def
/Tm { 2 copy 8 2 roll 6 array astore /cairo_font_matrix exch def
      cairo_store_point /cairo_font where { pop cairo_selectfont } if } bind def
/g { setgray } bind def
/rg { setrgbcolor } bind def
/d1 { setcachedevice } bind def
%%EndProlog
%%BeginSetup
%%EndSetup
%%Page: 1 1
%%BeginPageSetup
%%PageBoundingBox: 0 0 16 16
%%EndPageSetup
q 0 0 16 16 rectclip q
0 g
14 16 m 2 16 l 0.898 16 0 15.102 0 14 c 0 5.199 l 0 4.098 0.898 3.199 2
 3.199 c 7.602 3.199 l 7.602 0.801 l 4.398 0.801 l 4.18 0.801 4 0.621 4 
0.398 c 4 0.18 4.18 0 4.398 0 c 11.602 0 l 11.82 0 12 0.18 12 0.398 c 12
 0.621 11.82 0.801 11.602 0.801 c 8.398 0.801 l 8.398 3.199 l 14 3.199 l
 15.102 3.199 16 4.098 16 5.199 c 16 14 l 16 15.102 15.102 16 14 16 c h
15.199 5.199 m 15.199 4.539 14.66 4 14 4 c 2 4 l 1.34 4 0.801 4.539 0.801
 5.199 c 0.801 14 l 0.801 14.66 1.34 15.199 2 15.199 c 14 15.199 l 14.66
 15.199 15.199 14.66 15.199 14 c h
15.199 5.199 m f
10.684 11.484 m 10.527 11.641 10.273 11.641 10.117 11.484 c 8 9.367 l 6.684
 10.684 l 6.527 10.84 6.273 10.84 6.117 10.684 c 3.316 7.883 l 3.16 7.727
 3.16 7.473 3.316 7.316 c 3.395 7.238 3.496 7.199 3.602 7.199 c 3.703 7.199
 3.805 7.238 3.883 7.316 c 6.398 9.832 l 7.719 8.516 l 7.871 8.359 8.125
 8.359 8.281 8.516 c 10.398 10.633 l 12.117 8.918 l 12.273 8.762 12.527 
8.762 12.684 8.918 c 12.84 9.074 12.84 9.328 12.684 9.484 c h
10.684 11.484 m f
Q Q
showpage
%%Trailer
end restore
%%EOF
