%!PS-Adobe-3.0 EPSF-3.0
%%Creator: cairo 1.14.6 (http://cairographics.org)
%%CreationDate: Sat Sep  1 19:00:17 2018
%%Pages: 1
%%DocumentData: Clean7Bit
%%LanguageLevel: 2
%%BoundingBox: 0 0 58 72
%%EndComments
%%BeginProlog
save
50 dict begin
/q { gsave } bind def
/Q { grestore } bind def
/cm { 6 array astore concat } bind def
/w { setlinewidth } bind def
/J { setlinecap } bind def
/j { setlinejoin } bind def
/M { setmiterlimit } bind def
/d { setdash } bind def
/m { moveto } bind def
/l { lineto } bind def
/c { curveto } bind def
/h { closepath } bind def
/re { exch dup neg 3 1 roll 5 3 roll moveto 0 rlineto
      0 exch rlineto 0 rlineto closepath } bind def
/S { stroke } bind def
/f { fill } bind def
/f* { eofill } bind def
/n { newpath } bind def
/W { clip } bind def
/W* { eoclip } bind def
/BT { } bind def
/ET { } bind def
/pdfmark where { pop globaldict /?pdfmark /exec load put }
    { globaldict begin /?pdfmark /pop load def /pdfmark
    /cleartomark load def end } ifelse
/BDC { mark 3 1 roll /BDC pdfmark } bind def
/EMC { mark /EMC pdfmark } bind def
/cairo_store_point { /cairo_point_y exch def /cairo_point_x exch def } def
/Tj { show currentpoint cairo_store_point } bind def
/TJ {
  {
    dup
    type /stringtype eq
    { show } { -0.001 mul 0 cairo_font_matrix dtransform rmoveto } ifelse
  } forall
  currentpoint cairo_store_point
} bind def
/cairo_selectfont { cairo_font_matrix aload pop pop pop 0 0 6 array astore
    cairo_font exch selectfont cairo_point_x cairo_point_y moveto } bind def
/Tf { pop /cairo_font exch def /cairo_font_matrix where
      { pop cairo_selectfont } if } bind def
/Td { matrix translate cairo_font_matrix matrix concatmatrix dup
      /cairo_font_matrix exch def dup 4 get exch 5 get cairo_store_point
      /cairo_font where { pop cairo_selectfont } if } bind def
/Tm { 2 copy 8 2 roll 6 array astore /cairo_font_matrix exch def
      cairo_store_point /cairo_font where { pop cairo_selectfont } if } bind def
/g { setgray } bind def
/rg { setrgbcolor } bind def
/d1 { setcachedevice } bind def
%%EndProlog
%%BeginSetup
%%EndSetup
%%Page: 1 1
%%BeginPageSetup
%%PageBoundingBox: 0 0 58 72
%%EndPageSetup
q 0 0 58 72 rectclip q
0 g
36.277 15.145 m 48.664 18.414 57.84 29.684 57.84 43.082 c 57.84 59.023 
44.863 72 28.918 72 c 12.973 72 0 59.023 0 43.082 c 0 29.684 9.176 18.414
 21.562 15.145 c 19.18 10.016 8.281 8.516 8.281 3.441 c 8.281 0 l 49.559
 0 l 49.559 3.441 l 49.555 8.516 38.66 10.016 36.277 15.145 c h
1.594 43.082 m 1.594 58.148 13.852 70.406 28.918 70.406 c 43.988 70.406
 56.246 58.148 56.246 43.082 c 56.246 30.414 47.574 19.766 35.863 16.68 
c 33.641 16.098 31.324 15.754 28.918 15.754 c 26.516 15.754 24.195 16.098
 21.977 16.68 c 10.266 19.766 1.594 30.414 1.594 43.082 c h
47.836 1.719 m 10.004 1.719 l 10.004 3.441 l 10.004 5.129 12.793 6.637 
15.492 8.098 c 18.605 9.781 22.039 11.656 23.277 14.723 c 25.102 14.359 
26.988 14.16 28.918 14.16 c 30.852 14.16 32.734 14.359 34.562 14.723 c 35.797
 11.656 39.234 9.781 42.348 8.098 c 45.043 6.637 47.836 5.129 47.836 3.441
 c h
47.836 1.719 m f
54.125 46.574 m 52.453 48.941 48.727 49.012 42.953 46.672 c 42.477 46.48
 41.977 46.238 41.453 45.984 c 39.898 45.227 38.133 44.371 35.926 44.371
 c 34.965 44.367 33.992 44.559 32.98 44.887 c 32.703 45.504 32.27 46.012
 31.758 46.441 c 32.238 48.891 33.887 59.039 29.656 64.324 c 27.453 67.074
 24.023 68.059 19.543 67.207 c 17.766 66.867 13.547 65.746 12.797 62.621
 c 12.188 60.059 14.086 57.121 18.605 53.641 c 19.012 53.328 19.469 53.02
 19.957 52.695 c 22.102 51.258 24.531 49.625 25.293 45.531 c 25.055 45.18
 24.859 44.812 24.727 44.395 c 24.625 44.355 l 24.102 44.164 11.77 39.582
 9.973 31.945 c 9.242 28.84 10.34 25.719 13.238 22.664 c 14.211 21.633 16.758
 19.242 19.402 19.242 c 22.656 19.242 24.59 22.594 25.156 29.199 c 25.203
 29.711 25.211 30.262 25.227 30.848 c 25.27 33.312 25.355 36.086 27.984 
38.812 c 28.297 38.746 28.59 38.625 28.918 38.625 c 29.367 38.625 29.773
 38.754 30.184 38.879 c 32.07 37.23 38.934 31.633 45.184 31.633 c 45.188
 31.633 l 49.414 31.633 52.445 34.117 54.184 39.008 c 54.715 40.504 55.773
 44.234 54.125 46.574 c h
20.91 54.125 m 20.461 54.426 20.031 54.711 19.652 55.004 c 14.832 58.715
 14.176 60.977 14.469 62.219 c 15.012 64.488 19.059 65.363 19.863 65.52 
c 20.805 65.695 21.695 65.785 22.516 65.785 c 25.051 65.785 26.945 64.957
 28.312 63.25 c 31.816 58.879 30.66 50.188 30.156 47.289 c 29.758 47.406
 29.359 47.539 28.922 47.539 c 28.109 47.539 27.391 47.262 26.738 46.887
 c 25.629 50.941 22.93 52.773 20.91 54.125 c h
23.504 30.883 m 23.496 30.336 23.484 29.824 23.445 29.348 c 23.113 25.52
 22.148 20.965 19.402 20.965 c 17.789 20.965 15.805 22.453 14.488 23.844
 c 12.016 26.457 11.059 29.043 11.648 31.551 c 13.02 37.391 22.102 41.477
 24.578 42.492 c 24.746 41.273 25.383 40.246 26.328 39.551 c 23.641 36.469
 23.551 33.277 23.504 30.883 c h
29.562 40.473 m 29.348 40.422 29.148 40.344 28.918 40.344 c 28.75 40.344
 28.602 40.41 28.441 40.441 c 27.168 40.672 26.18 41.742 26.18 43.082 c 
26.18 43.152 26.219 43.211 26.223 43.281 c 26.27 43.887 26.504 44.43 26.875
 44.859 c 27.379 45.438 28.098 45.82 28.918 45.82 c 29.555 45.82 30.113 
45.566 30.582 45.199 c 30.898 44.949 31.164 44.652 31.344 44.289 c 31.527
 43.922 31.656 43.52 31.656 43.082 c 31.656 41.801 30.754 40.77 29.562 40.473
 c h
52.566 39.582 m 51.074 35.391 48.66 33.352 45.184 33.352 c 40.004 33.352
 34.062 37.879 31.812 39.754 c 32.73 40.555 33.332 41.688 33.359 42.988 
c 34.227 42.785 35.086 42.645 35.926 42.652 c 38.531 42.652 40.566 43.641
 42.207 44.438 c 42.695 44.672 43.156 44.898 43.598 45.078 c 48.402 47.016
 51.57 47.203 52.719 45.578 c 53.688 44.211 53.273 41.582 52.566 39.582 
c h
52.566 39.582 m f
Q Q
showpage
%%Trailer
end restore
%%EOF
