,FR1.1 Online,FR1.2 LOV-compliant,FR2 Modular,FR3 ODP,FR4 upper ontologies,FR5 External resources
SSN (v1),**,**,*,**,**,*
SOSA,**,**,**,(**),**,(**)
WoT,**,*,,,,
oneM2M,**,,,,,
SAREF,**,**,**,,,*
IoT-Lite,**,**,*,,,**
FIESTA-IoT,**,*,**,,**,**
iot.schema.org,*,,**,,,*
Hypercat,**,,,,,
Spitfire,*,**,,,**,**
OpenIoT,*,,,,**,**
MOFI,*,*,**,,,
IoT.est,**,,,,**,**
iot-ontology,*,,,,**,**
IoT-S,**,,*,(**),(**),**
SA,*,,*,(**),**,**
STN,**,*,**,,,
SWOT-O,**,*,,,,
SemIoT,**,*,**,,**,**
IoT-O,**,**,**,(**),**,**
